module gitlab.com/gitlab-org/gitlab-zoekt-indexer

go 1.23.4

require (
	cloud.google.com/go/profiler v0.4.2
	github.com/go-chi/chi/v5 v5.2.0
	github.com/golang-jwt/jwt/v5 v5.2.1
	github.com/google/go-cmp v0.7.0
	github.com/google/uuid v1.6.0
	github.com/grpc-ecosystem/go-grpc-middleware/providers/prometheus v1.0.1
	github.com/opentracing/opentracing-go v1.2.0
	github.com/prometheus/client_golang v1.21.1
	github.com/prometheus/procfs v0.15.1
	github.com/shirou/gopsutil/v4 v4.25.2
	github.com/sourcegraph/log v0.0.0-20241024013702-574f7079c888
	github.com/sourcegraph/mountinfo v0.0.0-20240201124957-b314c0befab1
	github.com/sourcegraph/zoekt v0.0.0-20250121105433-e7f0a1a349e1
	github.com/stretchr/testify v1.10.0
	github.com/uber/jaeger-client-go v2.30.0+incompatible
	gitlab.com/gitlab-org/gitaly/v16 v16.11.0-rc1.0.20241218060925-5b522da1812b
	gitlab.com/gitlab-org/labkit v1.22.0
	go.opentelemetry.io/contrib/instrumentation/google.golang.org/grpc/otelgrpc v0.60.0
	go.opentelemetry.io/otel/trace v1.35.0
	go.uber.org/automaxprocs v1.6.0
	go.uber.org/goleak v1.3.0
	golang.org/x/net v0.37.0
	golang.org/x/sync v0.12.0
	golang.org/x/sys v0.31.0
	google.golang.org/api v0.224.0
	google.golang.org/grpc v1.71.0
)

require (
	cloud.google.com/go v0.118.0 // indirect
	cloud.google.com/go/auth v0.15.0 // indirect
	cloud.google.com/go/auth/oauth2adapt v0.2.7 // indirect
	cloud.google.com/go/compute/metadata v0.6.0 // indirect
	cloud.google.com/go/monitoring v1.22.1 // indirect
	cloud.google.com/go/trace v1.11.3 // indirect
	contrib.go.opencensus.io/exporter/stackdriver v0.13.14 // indirect
	github.com/DataDog/datadog-go v4.4.0+incompatible // indirect
	github.com/DataDog/sketches-go v1.0.0 // indirect
	github.com/Microsoft/go-winio v0.6.2 // indirect
	github.com/RoaringBitmap/roaring v1.9.4 // indirect
	github.com/aws/aws-sdk-go v1.55.5 // indirect
	github.com/beorn7/perks v1.0.1 // indirect
	github.com/bits-and-blooms/bitset v1.20.0 // indirect
	github.com/bmatcuk/doublestar v1.3.4 // indirect
	github.com/census-instrumentation/opencensus-proto v0.4.1 // indirect
	github.com/cespare/xxhash/v2 v2.3.0 // indirect
	github.com/cockroachdb/errors v1.11.3 // indirect
	github.com/cockroachdb/logtags v0.0.0-20241215232642-bb51bb14a506 // indirect
	github.com/cockroachdb/redact v1.1.5 // indirect
	github.com/davecgh/go-spew v1.1.2-0.20180830191138-d8f796af33cc // indirect
	github.com/dgraph-io/badger/v4 v4.2.0 // indirect
	github.com/dgraph-io/ristretto v0.1.1 // indirect
	github.com/dustin/go-humanize v1.0.1 // indirect
	github.com/ebitengine/purego v0.8.2 // indirect
	github.com/fatih/color v1.18.0 // indirect
	github.com/felixge/httpsnoop v1.0.4 // indirect
	github.com/fsnotify/fsnotify v1.8.0 // indirect
	github.com/getsentry/sentry-go v0.31.1 // indirect
	github.com/go-enry/go-enry/v2 v2.9.1 // indirect
	github.com/go-enry/go-oniguruma v1.2.1 // indirect
	github.com/go-logr/logr v1.4.2 // indirect
	github.com/go-logr/stdr v1.2.2 // indirect
	github.com/go-ole/go-ole v1.3.0 // indirect
	github.com/gogo/protobuf v1.3.2 // indirect
	github.com/golang/glog v1.2.4 // indirect
	github.com/golang/groupcache v0.0.0-20241129210726-2c02b8208cf8 // indirect
	github.com/golang/protobuf v1.5.4 // indirect
	github.com/golang/snappy v0.0.4 // indirect
	github.com/google/flatbuffers v2.0.8+incompatible // indirect
	github.com/google/pprof v0.0.0-20241210010833-40e02aabc2ad // indirect
	github.com/google/s2a-go v0.1.9 // indirect
	github.com/googleapis/enterprise-certificate-proxy v0.3.5 // indirect
	github.com/googleapis/gax-go/v2 v2.14.1 // indirect
	github.com/grafana/regexp v0.0.0-20240607082908-2cb410fa05da // indirect
	github.com/grpc-ecosystem/go-grpc-middleware v1.4.0 // indirect
	github.com/grpc-ecosystem/go-grpc-middleware/v2 v2.2.0 // indirect
	github.com/hashicorp/yamux v0.1.2-0.20220728231024-8f49b6f63f18 // indirect
	github.com/jmespath/go-jmespath v0.4.0 // indirect
	github.com/klauspost/compress v1.17.11 // indirect
	github.com/kr/pretty v0.3.1 // indirect
	github.com/kr/text v0.2.0 // indirect
	github.com/lightstep/lightstep-tracer-common/golang/gogo v0.0.0-20210210170715-a8dfcb80d3a7 // indirect
	github.com/lightstep/lightstep-tracer-go v0.25.0 // indirect
	github.com/lufia/plan9stats v0.0.0-20211012122336-39d0f177ccd0 // indirect
	github.com/mattn/go-colorable v0.1.14 // indirect
	github.com/mattn/go-isatty v0.0.20 // indirect
	github.com/moby/sys/mountinfo v0.7.2 // indirect
	github.com/mschoch/smat v0.2.0 // indirect
	github.com/munnerz/goautoneg v0.0.0-20191010083416-a7dc8b61c822 // indirect
	github.com/oklog/ulid/v2 v2.0.2 // indirect
	github.com/onsi/ginkgo v1.16.5 // indirect
	github.com/onsi/gomega v1.27.10 // indirect
	github.com/philhofer/fwd v1.1.1 // indirect
	github.com/pkg/errors v0.9.1 // indirect
	github.com/pmezard/go-difflib v1.0.1-0.20181226105442-5d4384ee4fb2 // indirect
	github.com/power-devops/perfstat v0.0.0-20240221224432-82ca36839d55 // indirect
	github.com/prometheus/client_model v0.6.1 // indirect
	github.com/prometheus/common v0.62.0 // indirect
	github.com/prometheus/prometheus v0.54.0 // indirect
	github.com/rogpeppe/go-internal v1.13.1 // indirect
	github.com/rs/xid v1.6.0 // indirect
	github.com/sebest/xff v0.0.0-20210106013422-671bd2870b3a // indirect
	github.com/shirou/gopsutil/v3 v3.24.5 // indirect
	github.com/shoenig/go-m1cpu v0.1.6 // indirect
	github.com/shoenig/test v0.6.6 // indirect
	github.com/sirupsen/logrus v1.9.3 // indirect
	github.com/sourcegraph/go-ctags v0.0.0-20240424152308-4faeee4849da // indirect
	github.com/stretchr/objx v0.5.2 // indirect
	github.com/tinylib/msgp v1.1.2 // indirect
	github.com/tklauser/go-sysconf v0.3.12 // indirect
	github.com/tklauser/numcpus v0.6.1 // indirect
	github.com/uber/jaeger-lib v2.4.1+incompatible // indirect
	github.com/yusufpapurcu/wmi v1.2.4 // indirect
	gitlab.com/gitlab-org/go/reopen v1.0.0 // indirect
	go.opencensus.io v0.24.0 // indirect
	go.opentelemetry.io/auto/sdk v1.1.0 // indirect
	go.opentelemetry.io/contrib/instrumentation/net/http/otelhttp v0.59.0 // indirect
	go.opentelemetry.io/otel v1.35.0 // indirect
	go.opentelemetry.io/otel/metric v1.35.0 // indirect
	go.uber.org/atomic v1.11.0 // indirect
	go.uber.org/multierr v1.11.0 // indirect
	go.uber.org/zap v1.27.0 // indirect
	golang.org/x/crypto v0.36.0 // indirect
	golang.org/x/mod v0.22.0 // indirect
	golang.org/x/oauth2 v0.27.0 // indirect
	golang.org/x/text v0.23.0 // indirect
	golang.org/x/time v0.10.0 // indirect
	golang.org/x/xerrors v0.0.0-20240716161551-93cc26a95ae9 // indirect
	google.golang.org/genproto v0.0.0-20250115164207-1a7da9e5054f // indirect
	google.golang.org/genproto/googleapis/api v0.0.0-20250115164207-1a7da9e5054f // indirect
	google.golang.org/genproto/googleapis/rpc v0.0.0-20250227231956-55c901821b1e // indirect
	google.golang.org/protobuf v1.36.5 // indirect
	gopkg.in/DataDog/dd-trace-go.v1 v1.32.0 // indirect
	gopkg.in/yaml.v3 v3.0.1 // indirect
)
